Week 03 Lab: Tidying ASEAN Meat-Production Data
…
Discrepancies to resolve during cleaning: Ben expects poultry to have no data and be removable; others treat poultry as one of the four animal categories required by the task. Bryan notes missing values shown as - in the source.

3.2 Import the ASEAN Meat Production Data

Open ASEAN-Statistical-Yearbook-2023.xlsx and identify the cell range containing the table in sheet X.14.

meat_raw <- read_xlsx(
  path = "ASEAN-Statistical-Yearbook-2023.xlsx",
  sheet = "X.14",
  range = "A4:L36"
)

meat_raw

# A tibble: 32 × 12
   `Animal Type`       `Brunei Darussalam` Cambodia Indonesia `Lao PDR` Malaysia
   <chr>                             <dbl>    <dbl>     <dbl>     <dbl>    <dbl>
 1 2021                            NA          NA         NA      NA       NA   
 2 Livestock producti…             NA          NA         NA      NA       NA   
 3 Beef and Buffalo M…              4.27       59.5      459.     61.3     40.8 
 4 Pig meat                         0.0314    107.       324.    102.     219.  
 5 Mutton and Goat Me…              0.0709      0        118.      2.83     3.62
 6 Poultry production               0           0          0       0        0   
 7 Poultry meat                    31.6        27.8     3889.     43.2   1625.  
 8 Total meat product…             36.0       195.      4789.    209.    1889.  
 9 2020                             0           0          0       0        0   
10 Livestock producti…              0           0          0       0        0   
# ℹ 22 more rows
# ℹ 6 more variables: Myanmar <dbl>, Philippines <dbl>, Singapore <dbl>,
#   Thailand <dbl>, `Viet Nam` <dbl>, ASEAN <dbl>
…
